<?xml version="1.0" encoding="UTF-8" standalone="no"?>
<!-- Created with Inkscape (http://www.inkscape.org/) -->

<svg
   xmlns:dc="http://purl.org/dc/elements/1.1/"
   xmlns:cc="http://creativecommons.org/ns#"
   xmlns:rdf="http://www.w3.org/1999/02/22-rdf-syntax-ns#"
   xmlns:svg="http://www.w3.org/2000/svg"
   xmlns="http://www.w3.org/2000/svg"
   xmlns:sodipodi="http://sodipodi.sourceforge.net/DTD/sodipodi-0.dtd"
   xmlns:inkscape="http://www.inkscape.org/namespaces/inkscape"
   width="185.68391mm"
   height="185.91389mm"
   viewBox="0 0 185.68391 185.91389"
   version="1.1"
   id="svg8"
   sodipodi:docname="phase4_out.svg"
   inkscape:version="0.92.1 r15371">
  <defs
     id="defs2">
    <marker
       inkscape:stockid="Arrow1Lend"
       orient="auto"
       refY="0.0"
       refX="0.0"
       id="marker5049"
       style="overflow:visible;"
       inkscape:isstock="true">
      <path
         id="path5047"
         d="M 0.0,0.0 L 5.0,-5.0 L -12.5,0.0 L 5.0,5.0 L 0.0,0.0 z "
         style="fill-rule:evenodd;stroke:#000000;stroke-width:1pt;stroke-opacity:1;fill:#000000;fill-opacity:1"
         transform="scale(0.8) rotate(180) translate(12.5,0)" />
    </marker>
    <marker
       inkscape:stockid="Arrow1Lend"
       orient="auto"
       refY="0.0"
       refX="0.0"
       id="marker4889"
       style="overflow:visible;"
       inkscape:isstock="true">
      <path
         id="path4629"
         d="M 0.0,0.0 L 5.0,-5.0 L -12.5,0.0 L 5.0,5.0 L 0.0,0.0 z "
         style="fill-rule:evenodd;stroke:#000000;stroke-width:1pt;stroke-opacity:1;fill:#000000;fill-opacity:1"
         transform="scale(0.8) rotate(180) translate(12.5,0)" />
    </marker>
    <marker
       inkscape:stockid="Arrow1Lstart"
       orient="auto"
       refY="0"
       refX="0"
       id="Arrow1Lstart"
       style="overflow:visible"
       inkscape:isstock="true">
      <path
         id="path4615"
         d="M 0,0 5,-5 -12.5,0 5,5 Z"
         style="fill:#000000;fill-opacity:1;fill-rule:evenodd;stroke:#000000;stroke-width:1.00000003pt;stroke-opacity:1"
         transform="matrix(0.8,0,0,0.8,10,0)"
         inkscape:connector-curvature="0" />
    </marker>
    <marker
       inkscape:stockid="Arrow1Lend"
       orient="auto"
       refY="0"
       refX="0"
       id="Arrow1Lend"
       style="overflow:visible"
       inkscape:isstock="true">
      <path
         id="path4618"
         d="M 0,0 5,-5 -12.5,0 5,5 Z"
         style="fill:#000000;fill-opacity:1;fill-rule:evenodd;stroke:#000000;stroke-width:1.00000003pt;stroke-opacity:1"
         transform="matrix(-0.8,0,0,-0.8,-10,0)"
         inkscape:connector-curvature="0" />
    </marker>
    <clipPath
       clipPathUnits="userSpaceOnUse"
       id="clipPath4513">
      <rect
         style="opacity:1;fill:none;fill-opacity:0.19607843;stroke:#000000;stroke-width:0.70555556;stroke-linecap:butt;stroke-linejoin:miter;stroke-miterlimit:4;stroke-dasharray:none;stroke-dashoffset:0;stroke-opacity:1;paint-order:markers stroke fill"
         id="rect4515"
         width="184.97832"
         height="184.97832"
         x="10.583323"
         y="43.230011" />
    </clipPath>
    <clipPath
       clipPathUnits="userSpaceOnUse"
       id="clipPath4564">
      <rect
         style="opacity:1;fill:none;fill-opacity:0.19607843;stroke:#000000;stroke-width:0.70555556;stroke-linecap:butt;stroke-linejoin:miter;stroke-miterlimit:4;stroke-dasharray:none;stroke-dashoffset:0;stroke-opacity:1;paint-order:markers stroke fill"
         id="rect4566"
         width="184.97835"
         height="184.97835"
         x="10.813327"
         y="43" />
    </clipPath>
    <marker
       inkscape:stockid="Arrow1Lstart"
       orient="auto"
       refY="0"
       refX="0"
       id="Arrow1Lstart-1"
       style="overflow:visible"
       inkscape:isstock="true">
      <path
         inkscape:connector-curvature="0"
         id="path4615-7"
         d="M 0,0 5,-5 -12.5,0 5,5 Z"
         style="fill:#000000;fill-opacity:1;fill-rule:evenodd;stroke:#000000;stroke-width:1.00000003pt;stroke-opacity:1"
         transform="matrix(0.8,0,0,0.8,10,0)" />
    </marker>
    <marker
       inkscape:stockid="Arrow1Lend"
       orient="auto"
       refY="0"
       refX="0"
       id="Arrow1Lend-3"
       style="overflow:visible"
       inkscape:isstock="true">
      <path
         inkscape:connector-curvature="0"
         id="path4618-9"
         d="M 0,0 5,-5 -12.5,0 5,5 Z"
         style="fill:#000000;fill-opacity:1;fill-rule:evenodd;stroke:#000000;stroke-width:1.00000003pt;stroke-opacity:1"
         transform="matrix(-0.8,0,0,-0.8,-10,0)" />
    </marker>
    <marker
       inkscape:stockid="Arrow1Lstart"
       orient="auto"
       refY="0"
       refX="0"
       id="Arrow1Lstart-5"
       style="overflow:visible"
       inkscape:isstock="true">
      <path
         inkscape:connector-curvature="0"
         id="path4615-3"
         d="M 0,0 5,-5 -12.5,0 5,5 Z"
         style="fill:#000000;fill-opacity:1;fill-rule:evenodd;stroke:#000000;stroke-width:1.00000003pt;stroke-opacity:1"
         transform="matrix(0.8,0,0,0.8,10,0)" />
    </marker>
    <marker
       inkscape:stockid="Arrow1Lend"
       orient="auto"
       refY="0"
       refX="0"
       id="Arrow1Lend-1"
       style="overflow:visible"
       inkscape:isstock="true">
      <path
         inkscape:connector-curvature="0"
         id="path4618-4"
         d="M 0,0 5,-5 -12.5,0 5,5 Z"
         style="fill:#000000;fill-opacity:1;fill-rule:evenodd;stroke:#000000;stroke-width:1.00000003pt;stroke-opacity:1"
         transform="matrix(-0.8,0,0,-0.8,-10,0)" />
    </marker>
    <marker
       inkscape:stockid="Arrow1Lstart"
       orient="auto"
       refY="0"
       refX="0"
       id="Arrow1Lstart-5-9"
       style="overflow:visible"
       inkscape:isstock="true">
      <path
         inkscape:connector-curvature="0"
         id="path4615-3-7"
         d="M 0,0 5,-5 -12.5,0 5,5 Z"
         style="fill:#000000;fill-opacity:1;fill-rule:evenodd;stroke:#000000;stroke-width:1.00000003pt;stroke-opacity:1"
         transform="matrix(0.8,0,0,0.8,10,0)" />
    </marker>
    <marker
       inkscape:stockid="Arrow1Lend"
       orient="auto"
       refY="0"
       refX="0"
       id="Arrow1Lend-1-0"
       style="overflow:visible"
       inkscape:isstock="true">
      <path
         inkscape:connector-curvature="0"
         id="path4618-4-9"
         d="M 0,0 5,-5 -12.5,0 5,5 Z"
         style="fill:#000000;fill-opacity:1;fill-rule:evenodd;stroke:#000000;stroke-width:1.00000003pt;stroke-opacity:1"
         transform="matrix(-0.8,0,0,-0.8,-10,0)" />
    </marker>
    <marker
       inkscape:stockid="Arrow1Lstart"
       orient="auto"
       refY="0"
       refX="0"
       id="Arrow1Lstart-7"
       style="overflow:visible"
       inkscape:isstock="true">
      <path
         inkscape:connector-curvature="0"
         id="path4615-30"
         d="M 0,0 5,-5 -12.5,0 5,5 Z"
         style="fill:#000000;fill-opacity:1;fill-rule:evenodd;stroke:#000000;stroke-width:1.00000003pt;stroke-opacity:1"
         transform="matrix(0.8,0,0,0.8,10,0)" />
    </marker>
    <marker
       inkscape:stockid="Arrow1Lend"
       orient="auto"
       refY="0"
       refX="0"
       id="Arrow1Lend-33"
       style="overflow:visible"
       inkscape:isstock="true">
      <path
         inkscape:connector-curvature="0"
         id="path4618-1"
         d="M 0,0 5,-5 -12.5,0 5,5 Z"
         style="fill:#000000;fill-opacity:1;fill-rule:evenodd;stroke:#000000;stroke-width:1.00000003pt;stroke-opacity:1"
         transform="matrix(-0.8,0,0,-0.8,-10,0)" />
    </marker>
  </defs>
  <sodipodi:namedview
     id="base"
     pagecolor="#ffffff"
     bordercolor="#666666"
     borderopacity="1.0"
     inkscape:pageopacity="0.0"
     inkscape:pageshadow="2"
     inkscape:zoom="1.979899"
     inkscape:cx="641.21661"
     inkscape:cy="185.47497"
     inkscape:document-units="mm"
     inkscape:current-layer="layer1"
     showgrid="false"
     inkscape:window-width="1920"
     inkscape:window-height="1001"
     inkscape:window-x="-9"
     inkscape:window-y="-9"
     inkscape:window-maximized="1"
     inkscape:snap-bbox="true"
     inkscape:bbox-nodes="true"
     inkscape:snap-bbox-edge-midpoints="true"
     inkscape:snap-bbox-midpoints="true"
     inkscape:bbox-paths="true"
     inkscape:object-paths="true"
     inkscape:snap-intersection-paths="true"
     inkscape:snap-smooth-nodes="true"
     inkscape:snap-midpoints="true"
     inkscape:snap-object-midpoints="true"
     inkscape:snap-center="true"
     inkscape:snap-text-baseline="true"
     inkscape:snap-page="true"
     showguides="false"
     fit-margin-top="0"
     fit-margin-left="0"
     fit-margin-right="0"
     fit-margin-bottom="0"
     inkscape:snap-global="true">
    <inkscape:grid
       type="xygrid"
       id="grid4497"
       originx="-10.46052"
       originy="-68.438891" />
  </sodipodi:namedview>
  <metadata
     id="metadata5">
    <rdf:RDF>
      <cc:Work
         rdf:about="">
        <dc:format>image/svg+xml</dc:format>
        <dc:type
           rdf:resource="http://purl.org/dc/dcmitype/StillImage" />
        <dc:title />
      </cc:Work>
    </rdf:RDF>
  </metadata>
  <g
     inkscape:label="レイヤー 1"
     inkscape:groupmode="layer"
     id="layer1"
     transform="translate(-10.460519,-42.647222)">
    <rect
       style="opacity:1;fill:none;fill-opacity:0.19607843;stroke:#000000;stroke-width:0.70555556;stroke-linecap:butt;stroke-linejoin:miter;stroke-miterlimit:4;stroke-dasharray:none;stroke-dashoffset:0;stroke-opacity:1;paint-order:markers stroke fill"
       id="rect4501"
       width="184.97836"
       height="184.97836"
       x="10.813297"
       y="43" />
    <rect
       style="opacity:1;fill:none;fill-opacity:0.19607843;stroke:#000000;stroke-width:0.70555556;stroke-linecap:butt;stroke-linejoin:miter;stroke-miterlimit:4;stroke-dasharray:none;stroke-dashoffset:0;stroke-opacity:1;paint-order:markers stroke fill"
       id="rect4574"
       width="26.458332"
       height="26.458332"
       x="89.958336"
       y="201.75" />
    <circle
       style="opacity:1;fill:none;fill-opacity:0.19607843;stroke:#000000;stroke-width:0.70555556;stroke-linecap:butt;stroke-linejoin:miter;stroke-miterlimit:4;stroke-dasharray:none;stroke-dashoffset:0;stroke-opacity:1;paint-order:markers stroke fill"
       id="path4576"
       cx="103.1875"
       cy="135.60417"
       r="39.668667" />
    <circle
       style="opacity:1;fill:#e2f1fa;fill-opacity:1;stroke:#0071bc;stroke-width:1.05833328;stroke-linecap:butt;stroke-linejoin:miter;stroke-miterlimit:4;stroke-dasharray:none;stroke-dashoffset:0;stroke-opacity:1;paint-order:markers stroke fill"
       id="path4635-0"
       cx="-59.88945"
       cy="146.11972"
       r="0" />
    <circle
       style="opacity:1;fill:#e2f1fa;fill-opacity:1;stroke:#0071bc;stroke-width:1.05833328;stroke-linecap:butt;stroke-linejoin:miter;stroke-miterlimit:4;stroke-dasharray:none;stroke-dashoffset:0;stroke-opacity:1;paint-order:markers stroke fill"
       id="path4635-5"
       cx="161.62354"
       cy="180.28365"
       r="0" />
    <circle
       style="opacity:1;fill:#b88100;fill-opacity:0.39215686;stroke:#804d00;stroke-width:1.05833328;stroke-linecap:butt;stroke-linejoin:miter;stroke-miterlimit:4;stroke-dasharray:none;stroke-dashoffset:0;stroke-opacity:1;paint-order:markers stroke fill"
       id="path4635-04"
       cx="120.32856"
       cy="121.82468"
       r="10.598006" />
    <circle
       style="opacity:1;fill:#9ade00;fill-opacity:0.39215686;stroke:#009100;stroke-width:1.05833328;stroke-linecap:butt;stroke-linejoin:miter;stroke-miterlimit:4;stroke-dasharray:none;stroke-dashoffset:0;stroke-opacity:1;paint-order:markers stroke fill"
       id="path5536"
       cx="117.39397"
       cy="124.75927"
       r="2.4054255" />
    <circle
       style="opacity:1;fill:none;fill-opacity:0.19607843;stroke:#000000;stroke-width:0.70600003;stroke-linecap:butt;stroke-linejoin:miter;stroke-miterlimit:4;stroke-dasharray:2.82399999, 2.82399999;stroke-dashoffset:0;stroke-opacity:1;paint-order:markers stroke fill"
       id="path4576-5"
       cx="120.32856"
       cy="121.82468"
       r="49.824909" />
    <circle
       style="opacity:1;fill:#ffffff;fill-opacity:1;stroke:#b3b3b3;stroke-width:1.05833328;stroke-linecap:butt;stroke-linejoin:miter;stroke-miterlimit:4;stroke-dasharray:none;stroke-dashoffset:0;stroke-opacity:1;paint-order:markers stroke fill"
       id="path4635-3-0-2"
       cx="220.68262"
       cy="14.05895"
       r="10.598006"
       transform="matrix(0.75196464,0.65920344,-0.65920344,0.75196464,0,0)" />
    <g
       transform="matrix(0.75196464,0.65920345,-0.65920345,0.75196464,152.55699,-26.139754)"
       id="g4808-4-6-5-4"
       style="fill:#ffffff;stroke:#b3b3b3">
      <rect
         y="128.19583"
         x="116.94583"
         height="12.170817"
         width="2.9104178"
         id="rect4637-4-7-5-8-3"
         style="opacity:1;fill:#ffffff;fill-opacity:1;stroke:#b3b3b3;stroke-width:1.05833328;stroke-linecap:butt;stroke-linejoin:miter;stroke-miterlimit:4;stroke-dasharray:none;stroke-dashoffset:0;stroke-opacity:1;paint-order:markers stroke fill" />
      <path
         inkscape:connector-curvature="0"
         id="path4667-0-8-5-3"
         d="m 116.41666,130.39187 3.96875,0"
         style="fill:#ffffff;stroke:#b3b3b3;stroke-width:0.26458332px;stroke-linecap:butt;stroke-linejoin:miter;stroke-opacity:1" />
      <path
         inkscape:connector-curvature="0"
         id="path4669-3-5-2-8"
         d="m 116.41667,132.98478 3.96875,0"
         style="fill:#ffffff;stroke:#b3b3b3;stroke-width:0.26458332px;stroke-linecap:butt;stroke-linejoin:miter;stroke-opacity:1" />
      <path
         inkscape:connector-curvature="0"
         id="path4671-2-7-8-4"
         d="m 116.41667,135.57769 3.96875,0"
         style="fill:#ffffff;stroke:#b3b3b3;stroke-width:0.26458332px;stroke-linecap:butt;stroke-linejoin:miter;stroke-opacity:1" />
      <path
         inkscape:connector-curvature="0"
         id="path4673-5-8-2-2"
         d="m 116.41666,138.1706 3.96875,0"
         style="fill:#ffffff;stroke:#b3b3b3;stroke-width:0.26458332px;stroke-linecap:butt;stroke-linejoin:miter;stroke-opacity:1" />
      <path
         inkscape:connector-curvature="0"
         id="path4667-6-5-6-5-2"
         d="m 116.41667,129.09541 3.96875,0"
         style="fill:#ffffff;stroke:#b3b3b3;stroke-width:0.26458332px;stroke-linecap:butt;stroke-linejoin:miter;stroke-opacity:1" />
      <path
         inkscape:connector-curvature="0"
         id="path4669-9-1-4-1-3"
         d="m 116.41667,131.68833 3.96875,0"
         style="fill:#ffffff;stroke:#b3b3b3;stroke-width:0.26458332px;stroke-linecap:butt;stroke-linejoin:miter;stroke-opacity:1" />
      <path
         inkscape:connector-curvature="0"
         id="path4671-1-2-9-0-4"
         d="m 116.41667,134.28124 3.96875,0"
         style="fill:#ffffff;stroke:#b3b3b3;stroke-width:0.26458332px;stroke-linecap:butt;stroke-linejoin:miter;stroke-opacity:1" />
      <path
         inkscape:connector-curvature="0"
         id="path4673-8-7-8-7-9"
         d="m 116.41667,136.87415 3.96875,0"
         style="fill:#ffffff;stroke:#b3b3b3;stroke-width:0.26458332px;stroke-linecap:butt;stroke-linejoin:miter;stroke-opacity:1" />
      <path
         inkscape:connector-curvature="0"
         id="path4673-3-8-2-7-9"
         d="m 116.41667,139.46706 3.96875,0"
         style="fill:#ffffff;stroke:#b3b3b3;stroke-width:0.26458332px;stroke-linecap:butt;stroke-linejoin:miter;stroke-opacity:1" />
      <path
         inkscape:connector-curvature="0"
         id="path4667-6-2-6-8-1-7"
         d="m 116.41667,127.79896 3.96875,0"
         style="fill:#ffffff;stroke:#b3b3b3;stroke-width:0.26458332px;stroke-linecap:butt;stroke-linejoin:miter;stroke-opacity:1" />
      <path
         inkscape:connector-curvature="0"
         id="path4667-6-4-5-5-0-5"
         d="m 116.41667,140.76352 3.96875,0"
         style="fill:#ffffff;stroke:#b3b3b3;stroke-width:0.26458332px;stroke-linecap:butt;stroke-linejoin:miter;stroke-opacity:1" />
    </g>
    <g
       transform="matrix(0.75196464,0.65920345,-0.65920345,0.75196464,159.76918,-19.817238)"
       id="g4808-8-3-8-0"
       style="fill:#ffffff;stroke:#b3b3b3">
      <rect
         y="128.19583"
         x="116.94583"
         height="12.170817"
         width="2.9104178"
         id="rect4637-4-3-6-4-4"
         style="opacity:1;fill:#ffffff;fill-opacity:1;stroke:#b3b3b3;stroke-width:1.05833328;stroke-linecap:butt;stroke-linejoin:miter;stroke-miterlimit:4;stroke-dasharray:none;stroke-dashoffset:0;stroke-opacity:1;paint-order:markers stroke fill" />
      <path
         inkscape:connector-curvature="0"
         id="path4667-5-7-2-8"
         d="m 116.41666,130.39187 3.96875,0"
         style="fill:#ffffff;stroke:#b3b3b3;stroke-width:0.26458332px;stroke-linecap:butt;stroke-linejoin:miter;stroke-opacity:1" />
      <path
         inkscape:connector-curvature="0"
         id="path4669-33-9-5-0"
         d="m 116.41667,132.98478 3.96875,0"
         style="fill:#ffffff;stroke:#b3b3b3;stroke-width:0.26458332px;stroke-linecap:butt;stroke-linejoin:miter;stroke-opacity:1" />
      <path
         inkscape:connector-curvature="0"
         id="path4671-7-5-2-7"
         d="m 116.41667,135.57769 3.96875,0"
         style="fill:#ffffff;stroke:#b3b3b3;stroke-width:0.26458332px;stroke-linecap:butt;stroke-linejoin:miter;stroke-opacity:1" />
      <path
         inkscape:connector-curvature="0"
         id="path4673-6-4-7-5"
         d="m 116.41666,138.1706 3.96875,0"
         style="fill:#ffffff;stroke:#b3b3b3;stroke-width:0.26458332px;stroke-linecap:butt;stroke-linejoin:miter;stroke-opacity:1" />
      <path
         inkscape:connector-curvature="0"
         id="path4667-6-3-9-6-8"
         d="m 116.41667,129.09541 3.96875,0"
         style="fill:#ffffff;stroke:#b3b3b3;stroke-width:0.26458332px;stroke-linecap:butt;stroke-linejoin:miter;stroke-opacity:1" />
      <path
         inkscape:connector-curvature="0"
         id="path4669-9-3-1-9-8"
         d="m 116.41667,131.68833 3.96875,0"
         style="fill:#ffffff;stroke:#b3b3b3;stroke-width:0.26458332px;stroke-linecap:butt;stroke-linejoin:miter;stroke-opacity:1" />
      <path
         inkscape:connector-curvature="0"
         id="path4671-1-3-3-0-8"
         d="m 116.41667,134.28124 3.96875,0"
         style="fill:#ffffff;stroke:#b3b3b3;stroke-width:0.26458332px;stroke-linecap:butt;stroke-linejoin:miter;stroke-opacity:1" />
      <path
         inkscape:connector-curvature="0"
         id="path4673-8-70-0-9-2"
         d="m 116.41667,136.87415 3.96875,0"
         style="fill:#ffffff;stroke:#b3b3b3;stroke-width:0.26458332px;stroke-linecap:butt;stroke-linejoin:miter;stroke-opacity:1" />
      <path
         inkscape:connector-curvature="0"
         id="path4673-3-82-2-6-3"
         d="m 116.41667,139.46706 3.96875,0"
         style="fill:#ffffff;stroke:#b3b3b3;stroke-width:0.26458332px;stroke-linecap:butt;stroke-linejoin:miter;stroke-opacity:1" />
      <path
         inkscape:connector-curvature="0"
         id="path4667-6-2-5-7-9-3"
         d="m 116.41667,127.79896 3.96875,0"
         style="fill:#ffffff;stroke:#b3b3b3;stroke-width:0.26458332px;stroke-linecap:butt;stroke-linejoin:miter;stroke-opacity:1" />
      <path
         inkscape:connector-curvature="0"
         id="path4667-6-4-9-2-1-7"
         d="m 116.41667,140.76352 3.96875,0"
         style="fill:#ffffff;stroke:#b3b3b3;stroke-width:0.26458332px;stroke-linecap:butt;stroke-linejoin:miter;stroke-opacity:1" />
    </g>
    <path
       style="fill:#ffffff;stroke:#b3b3b3;stroke-width:0.70555562;stroke-linecap:butt;stroke-linejoin:miter;stroke-miterlimit:4;stroke-dasharray:none;stroke-opacity:1"
       d="m 148.7159,149.07132 5.8351,-5.90402"
       id="path4916-6-9-7"
       inkscape:connector-curvature="0" />
    <path
       style="fill:#ffffff;stroke:#b3b3b3;stroke-width:0.70555556;stroke-linecap:butt;stroke-linejoin:miter;stroke-miterlimit:4;stroke-dasharray:none;stroke-opacity:1"
       d="m 148.24313,143.39312 -3.59133,4.09669"
       id="path4918-3-8-6"
       inkscape:connector-curvature="0" />
    <path
       style="fill:#ffffff;stroke:#b3b3b3;stroke-width:0.70555556;stroke-linecap:butt;stroke-linejoin:miter;stroke-miterlimit:4;stroke-dasharray:none;stroke-opacity:1"
       d="m 154.51916,142.83179 -6.27603,0.56133"
       id="path4920-5-6-7"
       inkscape:connector-curvature="0" />
    <path
       style="fill:#ffffff;stroke:#b3b3b3;stroke-width:0.70555556;stroke-linecap:butt;stroke-linejoin:miter;stroke-miterlimit:4;stroke-dasharray:none;stroke-opacity:1"
       d="m 141.12395,148.91637 2.24017,-2.5554 2.57537,2.25767 -2.24018,2.55539"
       id="path4924-8-4-9"
       inkscape:connector-curvature="0" />
    <ellipse
       style="opacity:1;fill:#ffffff;fill-opacity:1;stroke:#b3b3b3;stroke-width:1.05833328;stroke-linecap:butt;stroke-linejoin:miter;stroke-miterlimit:4;stroke-dasharray:none;stroke-dashoffset:0;stroke-opacity:1;paint-order:markers stroke fill"
       id="path4893-2-9-5"
       cx="210.08826"
       cy="14.056601"
       rx="1.335039"
       ry="1.3454711"
       transform="matrix(0.75196464,0.65920344,-0.65920344,0.75196464,0,0)" />
    <ellipse
       style="opacity:1;fill:#ffffff;fill-opacity:1;stroke:#b3b3b3;stroke-width:1.05833328;stroke-linecap:butt;stroke-linejoin:miter;stroke-miterlimit:4;stroke-dasharray:none;stroke-dashoffset:0;stroke-opacity:1;paint-order:markers stroke fill"
       id="path4893-8-8-8-1"
       cx="210.34532"
       cy="5.5417995"
       rx="1.335039"
       ry="1.3454711"
       transform="matrix(0.75196464,0.65920344,-0.65920344,0.75196464,0,0)" />
    <ellipse
       style="opacity:1;fill:#ffffff;fill-opacity:1;stroke:#b3b3b3;stroke-width:1.05833328;stroke-linecap:butt;stroke-linejoin:miter;stroke-miterlimit:4;stroke-dasharray:none;stroke-dashoffset:0;stroke-opacity:1;paint-order:markers stroke fill"
       id="path4893-85-0-5-9"
       cx="205.99879"
       cy="10.104116"
       rx="1.335039"
       ry="1.3454711"
       transform="matrix(0.75196464,0.65920344,-0.65920344,0.75196464,0,0)" />
    <path
       style="opacity:1;fill:#ffffff;fill-opacity:1;stroke:#b3b3b3;stroke-width:1.05833328;stroke-linecap:butt;stroke-linejoin:miter;stroke-miterlimit:4;stroke-dasharray:none;stroke-dashoffset:0;stroke-opacity:1;paint-order:markers stroke fill"
       d="m 147.86241,146.55627 -0.74738,0.85257 -0.86882,-1.76513 -1.2846,1.46537 1.86397,0.63 -0.70719,0.80671 3.21946,2.82232 1.74414,-1.98957 z"
       id="rect5397-5-6-1"
       inkscape:connector-curvature="0" />
    <path
       style="fill:none;fill-rule:evenodd;stroke:#0071bc;stroke-width:0.35277778;stroke-linecap:butt;stroke-linejoin:miter;stroke-opacity:1;stroke-miterlimit:4;stroke-dasharray:none"
       d="m 156.67781,156.04657 c -20.75775,5.56203 -24.26284,-9.03474 -24.26284,-9.03474"
       id="path4430"
       inkscape:connector-curvature="0" />
    <circle
       style="opacity:1;fill:#eaeaea;fill-opacity:1;stroke:#4d4d4d;stroke-width:1.05833328;stroke-linecap:butt;stroke-linejoin:miter;stroke-miterlimit:4;stroke-dasharray:none;stroke-dashoffset:0;stroke-opacity:1;paint-order:markers stroke fill"
       id="path4635-3-0-2-3"
       cx="196.48209"
       cy="23.259293"
       r="10.598006"
       transform="matrix(0.75196464,0.65920344,-0.65920344,0.75196464,0,0)" />
    <g
       transform="matrix(0.75196463,0.65920344,-0.65920344,0.75196463,128.29416,-35.174496)"
       id="g4808-4-6-5-4-6">
      <rect
         y="128.19583"
         x="116.94583"
         height="12.170817"
         width="2.9104178"
         id="rect4637-4-7-5-8-3-7"
         style="opacity:1;fill:#b3b3b3;fill-opacity:1;stroke:#4d4d4d;stroke-width:1.05833328;stroke-linecap:butt;stroke-linejoin:miter;stroke-miterlimit:4;stroke-dasharray:none;stroke-dashoffset:0;stroke-opacity:1;paint-order:markers stroke fill" />
      <path
         inkscape:connector-curvature="0"
         id="path4667-0-8-5-3-5"
         d="m 116.41666,130.39187 3.96875,0"
         style="fill:none;stroke:#4d4d4d;stroke-width:0.26458332px;stroke-linecap:butt;stroke-linejoin:miter;stroke-opacity:1" />
      <path
         inkscape:connector-curvature="0"
         id="path4669-3-5-2-8-3"
         d="m 116.41667,132.98478 3.96875,0"
         style="fill:none;stroke:#4d4d4d;stroke-width:0.26458332px;stroke-linecap:butt;stroke-linejoin:miter;stroke-opacity:1" />
      <path
         inkscape:connector-curvature="0"
         id="path4671-2-7-8-4-5"
         d="m 116.41667,135.57769 3.96875,0"
         style="fill:none;stroke:#4d4d4d;stroke-width:0.26458332px;stroke-linecap:butt;stroke-linejoin:miter;stroke-opacity:1" />
      <path
         inkscape:connector-curvature="0"
         id="path4673-5-8-2-2-6"
         d="m 116.41666,138.1706 3.96875,0"
         style="fill:none;stroke:#4d4d4d;stroke-width:0.26458332px;stroke-linecap:butt;stroke-linejoin:miter;stroke-opacity:1" />
      <path
         inkscape:connector-curvature="0"
         id="path4667-6-5-6-5-2-2"
         d="m 116.41667,129.09541 3.96875,0"
         style="fill:none;stroke:#4d4d4d;stroke-width:0.26458332px;stroke-linecap:butt;stroke-linejoin:miter;stroke-opacity:1" />
      <path
         inkscape:connector-curvature="0"
         id="path4669-9-1-4-1-3-9"
         d="m 116.41667,131.68833 3.96875,0"
         style="fill:none;stroke:#4d4d4d;stroke-width:0.26458332px;stroke-linecap:butt;stroke-linejoin:miter;stroke-opacity:1" />
      <path
         inkscape:connector-curvature="0"
         id="path4671-1-2-9-0-4-1"
         d="m 116.41667,134.28124 3.96875,0"
         style="fill:none;stroke:#4d4d4d;stroke-width:0.26458332px;stroke-linecap:butt;stroke-linejoin:miter;stroke-opacity:1" />
      <path
         inkscape:connector-curvature="0"
         id="path4673-8-7-8-7-9-2"
         d="m 116.41667,136.87415 3.96875,0"
         style="fill:none;stroke:#4d4d4d;stroke-width:0.26458332px;stroke-linecap:butt;stroke-linejoin:miter;stroke-opacity:1" />
      <path
         inkscape:connector-curvature="0"
         id="path4673-3-8-2-7-9-7"
         d="m 116.41667,139.46706 3.96875,0"
         style="fill:none;stroke:#4d4d4d;stroke-width:0.26458332px;stroke-linecap:butt;stroke-linejoin:miter;stroke-opacity:1" />
      <path
         inkscape:connector-curvature="0"
         id="path4667-6-2-6-8-1-7-0"
         d="m 116.41667,127.79896 3.96875,0"
         style="fill:none;stroke:#4d4d4d;stroke-width:0.26458332px;stroke-linecap:butt;stroke-linejoin:miter;stroke-opacity:1" />
      <path
         inkscape:connector-curvature="0"
         id="path4667-6-4-5-5-0-5-9"
         d="m 116.41667,140.76352 3.96875,0"
         style="fill:none;stroke:#4d4d4d;stroke-width:0.26458332px;stroke-linecap:butt;stroke-linejoin:miter;stroke-opacity:1" />
    </g>
    <g
       transform="matrix(0.75196463,0.65920344,-0.65920344,0.75196463,135.50635,-28.851976)"
       id="g4808-8-3-8-0-3">
      <rect
         y="128.19583"
         x="116.94583"
         height="12.170817"
         width="2.9104178"
         id="rect4637-4-3-6-4-4-6"
         style="opacity:1;fill:#b3b3b3;fill-opacity:1;stroke:#4d4d4d;stroke-width:1.05833328;stroke-linecap:butt;stroke-linejoin:miter;stroke-miterlimit:4;stroke-dasharray:none;stroke-dashoffset:0;stroke-opacity:1;paint-order:markers stroke fill" />
      <path
         inkscape:connector-curvature="0"
         id="path4667-5-7-2-8-0"
         d="m 116.41666,130.39187 3.96875,0"
         style="fill:none;stroke:#4d4d4d;stroke-width:0.26458332px;stroke-linecap:butt;stroke-linejoin:miter;stroke-opacity:1" />
      <path
         inkscape:connector-curvature="0"
         id="path4669-33-9-5-0-6"
         d="m 116.41667,132.98478 3.96875,0"
         style="fill:none;stroke:#4d4d4d;stroke-width:0.26458332px;stroke-linecap:butt;stroke-linejoin:miter;stroke-opacity:1" />
      <path
         inkscape:connector-curvature="0"
         id="path4671-7-5-2-7-2"
         d="m 116.41667,135.57769 3.96875,0"
         style="fill:none;stroke:#4d4d4d;stroke-width:0.26458332px;stroke-linecap:butt;stroke-linejoin:miter;stroke-opacity:1" />
      <path
         inkscape:connector-curvature="0"
         id="path4673-6-4-7-5-6"
         d="m 116.41666,138.1706 3.96875,0"
         style="fill:none;stroke:#4d4d4d;stroke-width:0.26458332px;stroke-linecap:butt;stroke-linejoin:miter;stroke-opacity:1" />
      <path
         inkscape:connector-curvature="0"
         id="path4667-6-3-9-6-8-1"
         d="m 116.41667,129.09541 3.96875,0"
         style="fill:none;stroke:#4d4d4d;stroke-width:0.26458332px;stroke-linecap:butt;stroke-linejoin:miter;stroke-opacity:1" />
      <path
         inkscape:connector-curvature="0"
         id="path4669-9-3-1-9-8-8"
         d="m 116.41667,131.68833 3.96875,0"
         style="fill:none;stroke:#4d4d4d;stroke-width:0.26458332px;stroke-linecap:butt;stroke-linejoin:miter;stroke-opacity:1" />
      <path
         inkscape:connector-curvature="0"
         id="path4671-1-3-3-0-8-7"
         d="m 116.41667,134.28124 3.96875,0"
         style="fill:none;stroke:#4d4d4d;stroke-width:0.26458332px;stroke-linecap:butt;stroke-linejoin:miter;stroke-opacity:1" />
      <path
         inkscape:connector-curvature="0"
         id="path4673-8-70-0-9-2-9"
         d="m 116.41667,136.87415 3.96875,0"
         style="fill:none;stroke:#4d4d4d;stroke-width:0.26458332px;stroke-linecap:butt;stroke-linejoin:miter;stroke-opacity:1" />
      <path
         inkscape:connector-curvature="0"
         id="path4673-3-82-2-6-3-2"
         d="m 116.41667,139.46706 3.96875,0"
         style="fill:none;stroke:#4d4d4d;stroke-width:0.26458332px;stroke-linecap:butt;stroke-linejoin:miter;stroke-opacity:1" />
      <path
         inkscape:connector-curvature="0"
         id="path4667-6-2-5-7-9-3-0"
         d="m 116.41667,127.79896 3.96875,0"
         style="fill:none;stroke:#4d4d4d;stroke-width:0.26458332px;stroke-linecap:butt;stroke-linejoin:miter;stroke-opacity:1" />
      <path
         inkscape:connector-curvature="0"
         id="path4667-6-4-9-2-1-7-2"
         d="m 116.41667,140.76352 3.96875,0"
         style="fill:none;stroke:#4d4d4d;stroke-width:0.26458332px;stroke-linecap:butt;stroke-linejoin:miter;stroke-opacity:1" />
    </g>
    <path
       style="fill:none;stroke:#4d4d4d;stroke-width:0.70555562;stroke-linecap:butt;stroke-linejoin:miter;stroke-miterlimit:4;stroke-dasharray:none;stroke-opacity:1"
       d="m 124.45307,140.03659 5.8351,-5.90402"
       id="path4916-6-9-7-3"
       inkscape:connector-curvature="0" />
    <path
       style="fill:none;stroke:#4d4d4d;stroke-width:0.70555556;stroke-linecap:butt;stroke-linejoin:miter;stroke-miterlimit:4;stroke-dasharray:none;stroke-opacity:1"
       d="m 123.9803,134.35839 -3.59133,4.09669"
       id="path4918-3-8-6-7"
       inkscape:connector-curvature="0" />
    <path
       style="fill:none;stroke:#4d4d4d;stroke-width:0.70555556;stroke-linecap:butt;stroke-linejoin:miter;stroke-miterlimit:4;stroke-dasharray:none;stroke-opacity:1"
       d="m 130.25633,133.79706 -6.27603,0.56133"
       id="path4920-5-6-7-5"
       inkscape:connector-curvature="0" />
    <path
       style="fill:none;stroke:#4d4d4d;stroke-width:0.70555556;stroke-linecap:butt;stroke-linejoin:miter;stroke-miterlimit:4;stroke-dasharray:none;stroke-opacity:1"
       d="m 116.86112,139.88164 2.24017,-2.5554 2.57537,2.25767 -2.24018,2.55539"
       id="path4924-8-4-9-9"
       inkscape:connector-curvature="0" />
    <ellipse
       style="opacity:1;fill:#b3b3b3;fill-opacity:1;stroke:#4d4d4d;stroke-width:1.05833328;stroke-linecap:butt;stroke-linejoin:miter;stroke-miterlimit:4;stroke-dasharray:none;stroke-dashoffset:0;stroke-opacity:1;paint-order:markers stroke fill"
       id="path4893-2-9-5-2"
       cx="185.88774"
       cy="23.256943"
       rx="1.335039"
       ry="1.3454711"
       transform="matrix(0.75196464,0.65920344,-0.65920344,0.75196464,0,0)" />
    <ellipse
       style="opacity:1;fill:#b3b3b3;fill-opacity:1;stroke:#4d4d4d;stroke-width:1.05833328;stroke-linecap:butt;stroke-linejoin:miter;stroke-miterlimit:4;stroke-dasharray:none;stroke-dashoffset:0;stroke-opacity:1;paint-order:markers stroke fill"
       id="path4893-8-8-8-1-2"
       cx="186.14479"
       cy="14.742143"
       rx="1.335039"
       ry="1.3454711"
       transform="matrix(0.75196464,0.65920344,-0.65920344,0.75196464,0,0)" />
    <ellipse
       style="opacity:1;fill:#b3b3b3;fill-opacity:1;stroke:#4d4d4d;stroke-width:1.05833328;stroke-linecap:butt;stroke-linejoin:miter;stroke-miterlimit:4;stroke-dasharray:none;stroke-dashoffset:0;stroke-opacity:1;paint-order:markers stroke fill"
       id="path4893-85-0-5-9-8"
       cx="181.79829"
       cy="19.304459"
       rx="1.335039"
       ry="1.3454711"
       transform="matrix(0.75196464,0.65920344,-0.65920344,0.75196464,0,0)" />
    <path
       style="opacity:1;fill:#b3b3b3;fill-opacity:1;stroke:#4d4d4d;stroke-width:1.05833328;stroke-linecap:butt;stroke-linejoin:miter;stroke-miterlimit:4;stroke-dasharray:none;stroke-dashoffset:0;stroke-opacity:1;paint-order:markers stroke fill"
       d="m 123.59958,137.52154 -0.74738,0.85257 -0.86882,-1.76513 -1.2846,1.46537 1.86397,0.63 -0.70719,0.80671 3.21946,2.82232 1.74414,-1.98957 z"
       id="rect5397-5-6-1-9"
       inkscape:connector-curvature="0" />
    <ellipse
       style="opacity:1;fill:#ffffff;fill-opacity:0.39215686;stroke:#e03253;stroke-width:0.70555556;stroke-linecap:butt;stroke-linejoin:miter;stroke-miterlimit:4;stroke-dasharray:none;stroke-dashoffset:0;stroke-opacity:1;paint-order:markers stroke fill"
       id="path4834"
       cx="163.06604"
       cy="181.8264"
       rx="23.245535"
       ry="11.90625" />
    <text
       xml:space="preserve"
       style="font-style:normal;font-weight:normal;font-size:7.73739529px;line-height:1.25;font-family:sans-serif;letter-spacing:0px;word-spacing:0px;fill:#e03253;fill-opacity:1;stroke:none;stroke-width:0.26458332"
       x="163.36638"
       y="179.74471"
       id="text4844"><tspan
         sodipodi:role="line"
         id="tspan4842"
         x="163.36638"
         y="179.74471"
         style="text-align:center;text-anchor:middle;fill:#e03253;stroke-width:0.26458332">Auto</tspan><tspan
         sodipodi:role="line"
         x="163.36638"
         y="189.41644"
         style="text-align:center;text-anchor:middle;fill:#e03253;stroke-width:0.26458332"
         id="tspan4846">Start!</tspan></text>
  </g>
</svg>
